{
    "count": 621,
    "next": "http://localhost:8000/api/v2/customformdatas/?page=2&page_size=25&sort=id",
    "previous": null,
    "results": [
        {
            "id": 48,
            "modification_timestamp": "2016-08-30T17:28:36.074109Z",
            "was_deleted": false,
            "form": 2,
            "data": "{\"first-page\": {\"client-active\": true}}",
            "human_readable":"{\"null\": {\"Anota\ç\ões\": null, \"Avalia\ç\ão\": null, \"Cliente Ativo\": \"Conforme\"}}"
        },
        {
            "id": 49,
            "modification_timestamp": "2016-08-30T17:28:56.130762Z",
            "was_deleted": false,
            "form": 2,
            "data": "{\"first-page\": {\"client-active\": true}}",
            "human_readable":"{\"null\": {\"Anota\ç\ões\": null, \"Avalia\ç\ão\": null, \"Cliente Ativo\": \"Conforme\"}}"
        },
        {
            "id": 50,
            "modification_timestamp": "2016-08-30T18:07:36.077209Z",
            "was_deleted": false,
            "form": 2,
            "data": "{\"first-page\": {\"rating\": 2.0, \"client-active\": true}}",
            "human_readable":"{\"null\": {\"Anota\ç\ões\": null, \"Avalia\ç\ão\": \"2\", \"Cliente Ativo\": \"Conforme\"}}"
        },
        {
            "id": 51,
            "modification_timestamp": "2016-08-30T18:08:22.424310Z",
            "was_deleted": false,
            "form": 2,
            "data": "{\"first-page\": {\"notes\": \"nota\", \"client-active\": true}}",
            "human_readable":"{\"null\": {\"Anota\ç\ões\": \"nota\", \"Avalia\ç\ão\": null, \"Cliente Ativo\": \"Conforme\"}}"
        },
        {
            "id": 52,
            "modification_timestamp": "2016-08-30T18:08:54.494866Z",
            "was_deleted": false,
            "form": 2,
            "data": "{\"first-page\": {\"rating\": 2.0, \"notes\": \"start\", \"client-active\": true}}",
            "human_readable":"{\"null\": {\"Anota\ç\ões\": \"start\", \"Avalia\ç\ão\": \"2\", \"Cliente Ativo\": \"Conforme\"}}"
        },
        {
            "id": 53,
            "modification_timestamp": "2016-08-30T18:43:36.244110Z",
            "was_deleted": false,
            "form": 2,
            "data": "{\"first-page\": {}}",
            "human_readable":"{\"null\": {\"Anota\ç\ões\": null, \"Avalia\ç\ão\": null, \"Cliente Ativo\": null}}"
        },
        {
            "id": 54,
            "modification_timestamp": "2016-08-30T18:43:41.843599Z",
            "was_deleted": false,
            "form": 2,
            "data": "{\"first-page\": {\"client-active\": true}}",
            "human_readable":"{\"null\": {\"Anota\ç\ões\": null, \"Avalia\ç\ão\": null, \"Cliente Ativo\": \"Conforme\"}}"
        },
        {
            "id": 55,
            "modification_timestamp": "2016-08-30T18:43:43.725240Z",
            "was_deleted": false,
            "form": 2,
            "data": "{\"first-page\": {}}",
            "human_readable":"{\"null\": {\"Anota\ç\ões\": null, \"Avalia\ç\ão\": null, \"Cliente Ativo\": null}}"
        },
        {
            "id": 56,
            "modification_timestamp": "2016-08-30T19:12:35.393520Z",
            "was_deleted": false,
            "form": 2,
            "data": "{\"first-page\": {\"client-active\": true}}",
            "human_readable":"{\"null\": {\"Anota\ç\ões\": null, \"Avalia\ç\ão\": null, \"Cliente Ativo\": \"Conforme\"}}"
        },
        {
            "id": 57,
            "modification_timestamp": "2016-08-30T19:12:52.625873Z",
            "was_deleted": false,
            "form": 2,
            "data": "{\"first-page\": {}}",
            "human_readable":"{\"null\": {\"Anota\ç\ões\": null, \"Avalia\ç\ão\": null, \"Cliente Ativo\": null}}"
        },
        {
            "id": 58,
            "modification_timestamp": "2016-08-30T19:12:57.292658Z",
            "was_deleted": false,
            "form": 2,
            "data": "{\"first-page\": {\"rating\": 4.0, \"client-active\": true}}",
            "human_readable":"{\"null\": {\"Anota\ç\ões\": null, \"Avalia\ç\ão\": \"4\", \"Cliente Ativo\": \"Conforme\"}}"
        },
        {
            "id": 59,
            "modification_timestamp": "2016-09-02T18:53:01.772664Z",
            "was_deleted": false,
            "form": 2,
            "data": "{\"first-page\": {\"rating\": 4.0, \"notes\": \" bla bla\", \"client-active\": true}}",
            "human_readable":"{\"null\": {\"Anota\ç\ões\": \" bla bla\", \"Avalia\ç\ão\": \"4\", \"Cliente Ativo\": \"Conforme\"}}"
        },
        {
            "id": 60,
            "modification_timestamp": "2019-07-25T19:40:08.056471Z",
            "was_deleted": false,
            "form": 3,
            "data": "{\"first-page\": {\"date\": \"2016-10-14T17:16:38Z\", \"datetime\": \"2016-09-16T17:16:38Z\", \"client-active\": true, \"time\": \"2016-09-14T21:16:38Z\"}}",
            "human_readable": "{}"
        },
        {
            "id": 61,
            "modification_timestamp": "2016-09-14T17:52:22.904815Z",
            "was_deleted": false,
            "form": 3,
            "data": "{\"first-page\": {\"date\": \"2016-09-15T17:52:01Z\", \"rating\": 2, \"datetime\": \"2016-09-15T17:52:01Z\", \"client-active\": true, \"time\": \"2016-09-14T18:52:01Z\"}}",
            "human_readable": "{}"
        },
        {
            "id": 62,
            "modification_timestamp": "2019-07-25T19:40:07.015957Z",
            "was_deleted": false,
            "form": 3,
            "data": "{\"first-page\": {\"client-active\": true}}",
            "human_readable": "{}"
        },
        {
            "id": 63,
            "modification_timestamp": "2019-07-25T19:40:08.356326Z",
            "was_deleted": false,
            "form": 3,
            "data": "{\"first-page\": {\"opportunity-related\": 318, \"client-active\": true}}",
            "human_readable": "{}"
        },
        {
            "id": 64,
            "modification_timestamp": "2019-07-25T19:40:05.671738Z",
            "was_deleted": false,
            "form": 3,
            "data": "{\"first-page\": {\"opportunity-related\": 1719}}",
            "human_readable": "{}"
        },
        {
            "id": 65,
            "modification_timestamp": "2019-07-25T19:40:06.440900Z",
            "was_deleted": false,
            "form": 3,
            "data": "{\"first-page\": {\"camera\": \"image/jpeg\"}}",
            "human_readable": "{}"
        },
        {
            "id": 66,
            "modification_timestamp": "2019-07-25T19:40:05.507152Z",
            "was_deleted": false,
            "form": 3,
            "data": "{\"first-page\": {\"camera\": \"image/jpeg\"}}",
            "human_readable": "{}"
        },
        {
            "id": 67,
            "modification_timestamp": "2019-07-25T19:40:07.317994Z",
            "was_deleted": false,
            "form": 3,
            "data": "{\"first-page\": {\"camera\": \"image/jpeg\"}}",
            "human_readable": "{}"
        },
        {
            "id": 68,
            "modification_timestamp": "2019-07-25T19:40:06.647741Z",
            "was_deleted": false,
            "form": 3,
            "data": "{\"first-page\": {\"rating\": 2.0, \"camera\": \"image/jpeg\"}}",
            "human_readable": "{}"
        },
        {
            "id": 69,
            "modification_timestamp": "2019-07-25T19:40:07.384935Z",
            "was_deleted": false,
            "form": 3,
            "data": "{\"first-page\": {\"rating\": 3.0, \"camera\": \"image/jpeg\"}}",
            "human_readable": "{}"
        },
        {
            "id": 70,
            "modification_timestamp": "2019-07-25T19:40:07.955342Z",
            "was_deleted": false,
            "form": 3,
            "data": "{\"first-page\": {\"camera\": \"image/jpeg\"}}",
            "human_readable": "{}"
        },
        {
            "id": 71,
            "modification_timestamp": "2019-07-25T19:40:05.807151Z",
            "was_deleted": false,
            "form": 3,
            "data": "{\"first-page\": {\"rating\": 2.0, \"camera\": \"image/jpeg\"}}",
            "human_readable": "{}"
        },
        {
            "id": 72,
            "modification_timestamp": "2019-07-25T19:40:05.841897Z",
            "was_deleted": false,
            "form": 3,
            "data": "{\"first-page\": {\"rating\": 2.0, \"camera\": \"image/jpeg\"}}",
            "human_readable": "{}"
        }
    ]
}
